{
  "$schema": "http://json-schema.org/draft-07/schema#",
  "description": "Identity verification settings",
  "type": "object",
  "additionalProperties": false,
  "properties": {
    "soft_phone_verification_transactions_daily_limit": {
      "type": "integer",
      "description": "Soft limit for daily phone verification transactions"
    }
  }
}
